…
```
`summarise()` regrouping output by 'yearx' (override with `.groups` argument)
```

```r
#	arrange(desc(mean_economic_damage2))
print(economic,n=10)
```

```
# A tibble: 227 x 6
# Groups:   yearx [17]
   yearx evtype_modified… economic_damage2 mean_economic_d… neconomic_damag…
   <dbl> <chr>                       <dbl>            <dbl>            <int>
 1  2006 flood                118824712570        89814598.             1323
 2  2005 hurricane             51799317000      1569676273.               33
 3  2005 storm surge           43058565000      1345580156.               32
 4  2004 hurricane             18922255800       675794850                28
 5  2011 tornado                9850961700         6789085.             1451
 6  2011 flood                  9379815150         3387438.             2769
 7  1997 flood                  7028552000         4963667.             1416
 8  1999 hurricane              5541066000       167911091.               33
 9  2010 flood                  5196113440         1763786.             2946
10  2001 tropical storm         5188110000       370579286.               14
# … with 217 more rows, and 1 more variable: xxxlog <dbl>
```
…
```r
#	arrange(desc(mean_health_damage2))
nrow(health)
```

```
[1] 211
```

```r
print(health,n=top_n_filter_h)
```

```
# A tibble: 211 x 6
   yearx evtype_modified… health_damage2 mean_health_dam… nhealth_damage2 xxxlog
   <dbl> <chr>                     <dbl>            <dbl>           <int>  <dbl>
 1  2011 tornado                    6750            28.0              241   3.83
 2  1998 flood                      6581            51.0              129   3.82
 3  1998 tornado                    2004            11.5              174   3.30
 4  1995 heat                       1981            31.4               63   3.30
 5  1999 heat                       1963            20.2               97   3.29
 6  1999 tornado                    1936            13.6              142   3.29
 7  2008 tornado                    1819            10.6              172   3.26
 8  2006 heat                       1765            27.2               65   3.25
 9  2003 tornado                    1141            10.8              106   3.06
10  1995 tornado                    1132             9.76             116   3.05
11  1997 tornado                    1101             9.41             117   3.04
12  2006 tornado                    1059             8.34             127   3.02
13  2002 tornado                    1023            10.2              100   3.01
14  2000 tornado                     923            10.4               89   2.97
15  2004 hurricane                   862            95.8                9   2.94
# … with 196 more rows
```
…
